[gd_scene load_steps=5 format=2]

[ext_resource path="res://Sprites/Slash.png" type="Texture" id=1]
[ext_resource path="res://Scripts/Slash.cs" type="Script" id=2]

[sub_resource type="RectangleShape2D" id=1]
extents = Vector2( 15, 19 )

[sub_resource type="Animation" id=2]
resource_name = "Slash"
length = 0.3
tracks/0/type = "value"
tracks/0/path = NodePath("Sprite:self_modulate")
tracks/0/interp = 1
tracks/0/loop_wrap = true
tracks/0/imported = false
tracks/0/enabled = true
tracks/0/keys = {
"times": PoolRealArray( 0, 0.3 ),
"transitions": PoolRealArray( 1, 1 ),
"update": 0,
"values": [ Color( 1, 1, 1, 1 ), Color( 1, 1, 1, 0 ) ]
}
tracks/1/type = "method"
tracks/1/path = NodePath(".")
tracks/1/interp = 1
tracks/1/loop_wrap = true
tracks/1/imported = false
tracks/1/enabled = true
tracks/1/keys = {
"times": PoolRealArray( 0.1, 0.3 ),
"transitions": PoolRealArray( 1, 1 ),
"values": [ {
"args": [  ],
"method": "DisableSlash"
}, {
"args": [  ],
"method": "queue_free"
} ]
}

[node name="Slash" type="Area2D"]
script = ExtResource( 2 )

[node name="Sprite" type="Sprite" parent="."]
self_modulate = Color( 1, 1, 1, 0.666667 )
position = Vector2( -0.198425, 0 )
rotation = 0.785398
scale = Vector2( 2.5, 2.5 )
z_index = 2
z_as_relative = false
texture = ExtResource( 1 )
offset = Vector2( 5.5, -5.5 )

[node name="CollisionShape2D" type="CollisionShape2D" parent="."]
position = Vector2( 15, 0 )
shape = SubResource( 1 )

[node name="AnimationPlayer" type="AnimationPlayer" parent="."]
autoplay = "Slash"
anims/Slash = SubResource( 2 )
[connection signal="body_entered" from="." to="." method="_on_Slash_body_entered"]
