[gd_scene load_steps=2 format=2]

[ext_resource path="res://Scenes/Humanoids/Enemy.tscn" type="PackedScene" id=1]

[node name="UnarmedEnemy" instance=ExtResource( 1 )]

[node name="Shadow" parent="." index="1"]
position = Vector2( 0, 11 )
offset = Vector2( 0, 0 )

[node name="Body" parent="YSort" index="0"]
position = Vector2( 0, 2 )
flip_h = false

[node name="Head" parent="YSort" index="1"]
position = Vector2( 0, 2 )

[node name="Front" parent="YSort/Head" index="0"]
offset = Vector2( 0, -18 )

[node name="Rear" parent="YSort/Head" index="1"]
offset = Vector2( 0, -18 )

[node name="Shield" parent="YSort" index="2"]
visible = false
position = Vector2( 8, 6 )
offset = Vector2( 0, 0 )

[node name="Sword" parent="YSort" index="3"]
visible = false
position = Vector2( -8, 4 )

[node name="Bow" parent="YSort" index="4"]
position = Vector2( -8, 2 )
rotation = 0.785398
offset = Vector2( -2, -2 )

[node name="Arrow" parent="YSort/Bow" index="0"]
offset = Vector2( 3, -3 )

[node name="AnimationPlayer_Body" parent="." index="3"]
autoplay = ""
